{
  "sdmx": {
    "datasourceIds": [
      "OECD-design",
      "OECD-staging"
    ],
    "range": [0, 2499],
    "attributes": {
      "flags": ["OBS_STATUS", "OBS_STATUS2", "CONF_STATUS"],
      "footnotes": ["TIME_FORMAT", "UNIT_MULT", "UNIT_MEASURE", "CURRENCY", "BASE_PER", "BASE_YEAR", "REF_PERIOD", "REF_PERIOD_DETAIL", "REF_YEAR_PRICE", "TABLE_IDENTIFIER", "SOURCE", "SOURCE_DETAIL", "COLL_PERIOD", "TIME_PER_COLLECT", "EMBARGO_DATE", "OBS_EDP_WBB", "GFS_ECOFUNC", "GFS_TAXCAT", "REPYEARSTART","REPYEAREND", "COMMENT_DSET", "COMMENT_OBS", "COMMENT_TS", "TITLE", "TITLE_COMPL", "LAST_UPDATE", "CUST_BREAKDOWN_LB", "COMPILING_ORG", "PRE_BREAK_VALUE", "DATA_COMP", "DISS_ORG", "TRANSFORMATION", "VALUATION", "METHODOLOGY", "SERIES_ATTRIBUTE", "OBSERV_ATTRIBUTE", "DATASET_ATTRIBUTE"],
      "prefscale": "PREF_SCALE",
      "decimals": "DECIMALS"
    },
    "units": {
      "id": "UNIT",
      "annotationsDefinitionCodes": {
        "concepts": ["UNIT_MEASURE_CONCEPTS"]
      },
      "defaultCodes": ["UNIT_MEASURE", "BASE_PER"],
      "rejectedValueIds": ["_L", "_T", "_Z"]
    },
    "period": {
      "boundaries": ["1970", "2020"],
      "default": ["2010", "2020"]
    },
    "frequency": "A"
  },
  "viewer": {
    "owner": "OECD",
    "logo": "/assets/oecd/images/oecd_logo.png",
    "terms": {
      "label": "Terms & Conditions",
      "link": "http://www.oecd.org/termsandconditions/"
    },
    "api": {
      "doc": "https://github.com/sdmx-twg/sdmx-rest/tree/master/v2_1/ws/rest/docs",
      "contact": "https://stats.oecd.org/FAQAndContact.aspx"
    }
  },
  "app": {
    "title": "OECD .Stat Data Explorer",
    "favicon": "/assets/oecd/images/favicon.ico"
  },
  "assets": {
    "header": "/assets/oecd/images/oecd_logo.png",
    "subheader": "/assets/siscc/data-explorer/images/dotstat-data-explorer-logo.png",
    "footer": "/assets/oecd/images/oecd_icon.png",
    "splash": "/assets/siscc/data-explorer/images/dotstat-data-explorer-logo.png"
  },
  "chart": {
    "url": "",
    "source": "http://de-staging-oecd.redpelicans.com/",
    "maps": {
      "fra-poc": {
        "id": "fra-poc",
        "projection": "mercator",
        "path": "/assets/siscc/data-explorer/maps/fra-poc.json",
        "levels": ["dep"],
        "scale": 2000
      }
    },
    "options": {
      "base": {
        "height": 700
      },
      "axis": {
        "x": {
          "font": {
            "family": "'Segoe UI'"
          }
        },
        "y": {
          "font": {
            "family": "'Segoe UI'"
          }
        }
      },
      "serie": {
        "annotation": {
          "font": {
            "family": "'Segoe UI'"
          }
        },
        "tooltip": {
          "font": {
            "family": "'Segoe UI'"
          }
        }
      }
    },
    "size": {
      "height": 400
    }
  },
  "table": {
    "cellsLimit": 6000
  },
  "theme": {
    "visFont": "'Segoe UI'"
  },
  "i18n": {
    "localeId": "en",
    "locales": {
      "en": {
        "id": "en",
        "delimiters": { "thousands": " ", "decimal": "."  },
        "timeFormat": "YYYY-MMM"
      },
      "fr": {
        "id": "fr",
        "delimiters": { "thousands": " ", "decimal": ","  },
        "timeFormat": "MMM YYYY"
      }
    }
  },
  "styles": "/assets/siscc/data-explorer/styles/styles.css",
  "search": {
    "endpoint": "http://sfs-staging-oecd.redpelicans.com/api",
    "homeFacetIds": ["Topic", "Thème", "datasourceId"],
    "pinnedFacetIds": ["datasourceId", "Topic", "Thème"],
    "defaultRows": 20
  },
  "share": {
    "confirmUrl": "http://dv-staging-oecd.redpelicans.com",
    "endpoint": "http://share-staging-oecd.redpelicans.com/api/charts",
    "policy": "http://www.oecd.org/general/privacypolicy.htm"
  }
}
